{
	"version": 1,
	"changelists": [
		{
			"guid": "00000000000000000000000000000000",
			"description": "Default Uncontrolled Changelist",
			"files": [
				"D:/Unreal_Engine_Project/SnakeGame/Content/Level1.umap",
				"D:/Unreal_Engine_Project/SnakeGame/Content/SpawnerBP.uasset",
				"D:/Unreal_Engine_Project/SnakeGame/Content/PlayerPawn_BP.uasset",
				"D:/Unreal_Engine_Project/SnakeGame/Content/SnakeBase_BP.uasset",
				"D:/Unreal_Engine_Project/SnakeGame/Content/SnakeElementBase_BP.uasset",
				"D:/Unreal_Engine_Project/SnakeGame/Content/Spawner_BP.uasset",
				"D:/Unreal_Engine_Project/SnakeGame/Content/Bonus/BonusSpeed_BP.uasset",
				"D:/Unreal_Engine_Project/SnakeGame/Content/Bonus/Food_BP.uasset",
				"D:/Unreal_Engine_Project/SnakeGame/Content/Bonus/BonusLife_BP.uasset",
				"D:/Unreal_Engine_Project/SnakeGame/Content/SpawnObject/BonusBlock_BP.uasset",
				"D:/Unreal_Engine_Project/SnakeGame/Content/SpawnObject/Floor_BP.uasset",
				"D:/Unreal_Engine_Project/SnakeGame/Content/SpawnObject/Wall_BP.uasset",
				"D:/Unreal_Engine_Project/SnakeGame/Content/SnakeGameModeBase_BP.uasset",
				"D:/Unreal_Engine_Project/SnakeGame/Content/UI/HUD/WBP_HUD.uasset",
				"D:/Unreal_Engine_Project/SnakeGame/Content/UI/HUD/WBP_Menu.uasset",
				"D:/Unreal_Engine_Project/SnakeGame/Content/MenuMap.umap",
				"D:/Unreal_Engine_Project/SnakeGame/Content/Menu/GameModeMenu_BP.uasset",
				"D:/Unreal_Engine_Project/SnakeGame/Content/Menu/PlayerControllerMenu_BP.uasset",
				"D:/Unreal_Engine_Project/SnakeGame/Content/SnakeGameController_BP.uasset",
				"D:/Unreal_Engine_Project/SnakeGame/Content/SpawnSoundCool.uasset",
				"D:/Unreal_Engine_Project/SnakeGame/Content/GameInstance_BP.uasset",
				"D:/Unreal_Engine_Project/SnakeGame/Content/Sound/SnakeGameBonusSpawn.uasset",
				"D:/Unreal_Engine_Project/SnakeGame/Content/MS_SpawnSound.uasset",
				"D:/Unreal_Engine_Project/SnakeGame/Content/PlayerController_BP.uasset",
				"D:/Unreal_Engine_Project/SnakeGame/Content/UI/HUD/HUD_BP.uasset",
				"D:/Unreal_Engine_Project/SnakeGame/Content/MenuMap_HLOD0_Instancing.uasset",
				"D:/Unreal_Engine_Project/SnakeGame/Content/__ExternalActors__/MenuMap/4/JH/HHC85XXPMKBCBYYP7GJMHR.uasset",
				"D:/Unreal_Engine_Project/SnakeGame/Content/__ExternalObjects__/MenuMap/6/6Y/NP9CQB602N0XSGL5O7OE8W.uasset",
				"D:/Unreal_Engine_Project/SnakeGame/Content/__ExternalObjects__/MenuMap/8/08/RTAN0U2LNTX0ZNKESWKTCI.uasset",
				"D:/Unreal_Engine_Project/SnakeGame/Content/__ExternalObjects__/MenuMap/8/0N/FOZD4XDM97Y4F4SGV38R2D.uasset",
				"D:/Unreal_Engine_Project/SnakeGame/Content/__ExternalObjects__/MenuMap/2/WL/I91JYG735JBA1JPAFOP26P.uasset",
				"D:/Unreal_Engine_Project/SnakeGame/Content/__ExternalObjects__/MenuMap/A/M3/31VBGFOKKND3UKTUVETMGL.uasset",
				"D:/Unreal_Engine_Project/SnakeGame/Content/__ExternalActors__/MenuMap/3/JV/VXNQTQSRMPGTZSQTF01LAC.uasset",
				"D:/Unreal_Engine_Project/SnakeGame/Content/__ExternalActors__/MenuMap/9/S9/EZGOHEQ2HVQ72P0JQJ43WO.uasset",
				"D:/Unreal_Engine_Project/SnakeGame/Content/__ExternalActors__/MenuMap/3/NW/D9QZ2SI8ERJ22E6LVORTB3.uasset",
				"D:/Unreal_Engine_Project/SnakeGame/Content/__ExternalActors__/MenuMap/C/ZV/CJBGCTMW8J3HO44W682XOF.uasset",
				"D:/Unreal_Engine_Project/SnakeGame/Content/__ExternalActors__/MenuMap/D/AE/XBBKKRZPU58C1MCOOP0ABW.uasset",
				"D:/Unreal_Engine_Project/SnakeGame/Content/__ExternalActors__/MenuMap/2/JF/5XDPF479PDNFY1TG01KUJ4.uasset",
				"D:/Unreal_Engine_Project/SnakeGame/Content/__ExternalActors__/MenuMap/3/94/95R17W6Z0SOJXQX636PMWN.uasset",
				"D:/Unreal_Engine_Project/SnakeGame/Content/__ExternalActors__/MenuMap/D/LU/QRN8XNMYZO0KNT4T0WPO9X.uasset",
				"D:/Unreal_Engine_Project/SnakeGame/Content/__ExternalActors__/MenuMap/2/K8/HEYT2QAC82919AC1U7J62S.uasset",
				"D:/Unreal_Engine_Project/SnakeGame/Content/__ExternalActors__/MenuMap/0/4J/3345272BXRTGGQ9U9KPBQ9.uasset",
				"D:/Unreal_Engine_Project/SnakeGame/Content/__ExternalActors__/MenuMap/6/YU/5YHAVA5RMEYSVIZVLJXRK4.uasset",
				"D:/Unreal_Engine_Project/SnakeGame/Content/__ExternalActors__/MenuMap/A/03/P6J4P09MXP0LZRYWXBV4B4.uasset",
				"D:/Unreal_Engine_Project/SnakeGame/Content/__ExternalActors__/MenuMap/9/L2/L54PUI5G7SLTFPV1VKLCQL.uasset",
				"D:/Unreal_Engine_Project/SnakeGame/Content/__ExternalActors__/MenuMap/4/4S/6Z4T0ED4DG94JTLSRNOTLU.uasset",
				"D:/Unreal_Engine_Project/SnakeGame/Content/__ExternalActors__/MenuMap/7/B3/A0N950BHB65B4WM65CFQW2.uasset",
				"D:/Unreal_Engine_Project/SnakeGame/Content/__ExternalActors__/MenuMap/9/MR/0YYLT527MVK35QSEC0E8Q0.uasset",
				"D:/Unreal_Engine_Project/SnakeGame/Content/__ExternalActors__/MenuMap/6/QI/NBBHH4EIU97POID1SFNH3J.uasset",
				"D:/Unreal_Engine_Project/SnakeGame/Content/__ExternalActors__/MenuMap/C/L7/ANLJJ786TY0WP7N8UVEZE3.uasset",
				"D:/Unreal_Engine_Project/SnakeGame/Content/__ExternalActors__/MenuMap/A/6G/NCHU6R2M0FGLS6473C12JM.uasset",
				"D:/Unreal_Engine_Project/SnakeGame/Content/__ExternalActors__/MenuMap/D/KO/TZW5N1K1S9O2JL5Q18656V.uasset",
				"D:/Unreal_Engine_Project/SnakeGame/Content/__ExternalActors__/MenuMap/5/XL/CSOI1EX8HKZATKLJ4GVVX8.uasset",
				"D:/Unreal_Engine_Project/SnakeGame/Content/__ExternalActors__/MenuMap/B/1T/PJ1PS9V61WYAWMQWATC3AK.uasset",
				"D:/Unreal_Engine_Project/SnakeGame/Content/__ExternalActors__/MenuMap/A/CU/GGOFAHB5T5QAJBWDEQ0RXL.uasset",
				"D:/Unreal_Engine_Project/SnakeGame/Content/__ExternalActors__/MenuMap/E/1L/D3WCZHZJOL3EYFZE92SAFW.uasset",
				"D:/Unreal_Engine_Project/SnakeGame/Content/__ExternalActors__/MenuMap/C/2G/FR1TG2WINMA1GEGLA7VBVG.uasset",
				"D:/Unreal_Engine_Project/SnakeGame/Content/__ExternalActors__/MenuMap/B/1Z/4J9PRW02K80GAUKKQMBP68.uasset",
				"D:/Unreal_Engine_Project/SnakeGame/Content/__ExternalActors__/MenuMap/2/3C/2YVDN39O2KNFRIGWZOYCRW.uasset",
				"D:/Unreal_Engine_Project/SnakeGame/Content/__ExternalActors__/MenuMap/1/4E/IK46T5QGS0JWK43F6COHZP.uasset",
				"D:/Unreal_Engine_Project/SnakeGame/Content/__ExternalActors__/MenuMap/9/55/F27NX90EUAYH38NI55DLB8.uasset",
				"D:/Unreal_Engine_Project/SnakeGame/Content/__ExternalActors__/MenuMap/2/QR/I4F6MUF9AUK14EPWTA8PRQ.uasset",
				"D:/Unreal_Engine_Project/SnakeGame/Content/__ExternalActors__/MenuMap/6/US/XI1KTO6MI2CUS2K1FTFHJ4.uasset",
				"D:/Unreal_Engine_Project/SnakeGame/Content/__ExternalActors__/MenuMap/7/SV/7Y5I2ZRRN9JAQO0KJQEKUB.uasset",
				"D:/Unreal_Engine_Project/SnakeGame/Content/__ExternalActors__/MenuMap/8/DN/AYDW2ZCFCRRD2NDX64OTAY.uasset",
				"D:/Unreal_Engine_Project/SnakeGame/Content/__ExternalActors__/MenuMap/9/YR/FPVF19Z0NENTQTSPJC8VES.uasset",
				"D:/Unreal_Engine_Project/SnakeGame/Content/__ExternalActors__/MenuMap/C/8Q/LHWH9CIUOM02UP1GBBW4WW.uasset",
				"D:/Unreal_Engine_Project/SnakeGame/Content/__ExternalActors__/MenuMap/A/TL/G822JTR293VM7CPRZFKMC5.uasset",
				"D:/Unreal_Engine_Project/SnakeGame/Content/__ExternalActors__/MenuMap/0/8O/50OX0P0BAYXCKLWYQ185Z7.uasset",
				"D:/Unreal_Engine_Project/SnakeGame/Content/__ExternalActors__/MenuMap/9/N5/72U7ZGN24813Z2ZSFM31ZH.uasset",
				"D:/Unreal_Engine_Project/SnakeGame/Content/__ExternalActors__/MenuMap/A/PF/BUMFI2XGI6XD8SRCMID93S.uasset",
				"D:/Unreal_Engine_Project/SnakeGame/Content/__ExternalActors__/MenuMap/8/45/QYOZKTP04PM47PES0TDY86.uasset",
				"D:/Unreal_Engine_Project/SnakeGame/Content/__ExternalActors__/MenuMap/3/YH/FCQAZNU3U7TSM0AF96NYDV.uasset",
				"D:/Unreal_Engine_Project/SnakeGame/Content/__ExternalActors__/MenuMap/9/CQ/FKI781Y1JDR1U1QUFF9L94.uasset",
				"D:/Unreal_Engine_Project/SnakeGame/Content/__ExternalActors__/MenuMap/8/UL/G79WICYMJAAPH4220H7OO5.uasset",
				"D:/Unreal_Engine_Project/SnakeGame/Content/__ExternalActors__/MenuMap/3/0S/KKXXIOQEYFO4HATTS64S1Y.uasset",
				"D:/Unreal_Engine_Project/SnakeGame/Content/__ExternalActors__/MenuMap/A/VW/KX3PD4ISE8QL1JLVED7FPK.uasset",
				"D:/Unreal_Engine_Project/SnakeGame/Content/__ExternalActors__/MenuMap/E/ZU/H9E3TV4GHMXJUG4QYSNLHY.uasset",
				"D:/Unreal_Engine_Project/SnakeGame/Content/__ExternalActors__/MenuMap/5/1V/OZWIYMGA0FRM296580306K.uasset",
				"D:/Unreal_Engine_Project/SnakeGame/Content/__ExternalActors__/MenuMap/A/48/QYN2D8KDR0FEP942OTYEJ1.uasset",
				"D:/Unreal_Engine_Project/SnakeGame/Content/__ExternalActors__/MenuMap/6/KA/6YXB3IAM6XTVFLZD8YX9DS.uasset",
				"D:/Unreal_Engine_Project/SnakeGame/Content/__ExternalActors__/MenuMap/C/SK/8HOEGBZEHHHDZPG7X5TB9V.uasset",
				"D:/Unreal_Engine_Project/SnakeGame/Content/__ExternalActors__/MenuMap/4/PT/WIHXWGE6GEZJZU75DGZAZA.uasset",
				"D:/Unreal_Engine_Project/SnakeGame/Content/__ExternalActors__/MenuMap/D/8W/O3BRJ3GG0G42GQCLRJJJAV.uasset",
				"D:/Unreal_Engine_Project/SnakeGame/Content/__ExternalActors__/MenuMap/5/CW/GRKFYV0HNTBTFSAONGNIVE.uasset",
				"D:/Unreal_Engine_Project/SnakeGame/Content/__ExternalActors__/MenuMap/D/37/AX249NWJY4C9AQ9GTQCS6X.uasset",
				"D:/Unreal_Engine_Project/SnakeGame/Content/__ExternalActors__/MenuMap/1/H9/KAC1FOMNTU6IYBWNCK5KNQ.uasset",
				"D:/Unreal_Engine_Project/SnakeGame/Content/__ExternalActors__/MenuMap/B/MP/4TVYETPYAABYD436ETC03I.uasset",
				"D:/Unreal_Engine_Project/SnakeGame/Content/__ExternalActors__/MenuMap/6/LQ/GBWILXC2YRWBN8GRFO3VNP.uasset",
				"D:/Unreal_Engine_Project/SnakeGame/Content/__ExternalActors__/MenuMap/C/FT/VZV78WXUHISIZFYD2P0YDK.uasset",
				"D:/Unreal_Engine_Project/SnakeGame/Content/__ExternalActors__/MenuMap/0/W0/SGMW6GMMPXFLXM7J8R061C.uasset",
				"D:/Unreal_Engine_Project/SnakeGame/Content/__ExternalActors__/MenuMap/C/DQ/60HRHMINMC0WKVOO6L1DL7.uasset",
				"D:/Unreal_Engine_Project/SnakeGame/Content/__ExternalActors__/MenuMap/5/2F/IMP1DYAL2OL9Y8LBQA2YI0.uasset",
				"D:/Unreal_Engine_Project/SnakeGame/Content/__ExternalActors__/MenuMap/B/ED/Y9S8XTQWUVQMJLNSBHFT7C.uasset",
				"D:/Unreal_Engine_Project/SnakeGame/Content/__ExternalActors__/MenuMap/2/DH/394ELAMWZHZ4ZAJCNNQ1G1.uasset",
				"D:/Unreal_Engine_Project/SnakeGame/Content/__ExternalActors__/MenuMap/B/QJ/4A37TMJ7ZVAKURBU42DCU7.uasset",
				"D:/Unreal_Engine_Project/SnakeGame/Content/__ExternalActors__/MenuMap/2/JL/NRWOLSXLHXGUF93Q37KQER.uasset",
				"D:/Unreal_Engine_Project/SnakeGame/Content/__ExternalActors__/MenuMap/B/NT/2T4S625YBKHZUL8HXQFF37.uasset",
				"D:/Unreal_Engine_Project/SnakeGame/Content/__ExternalActors__/MenuMap/A/FP/QON2UURQZGA5XFV3G7CY6P.uasset",
				"D:/Unreal_Engine_Project/SnakeGame/Content/__ExternalActors__/MenuMap/A/OI/6OPD93I5M4SCO711C3WVNQ.uasset",
				"D:/Unreal_Engine_Project/SnakeGame/Content/__ExternalActors__/MenuMap/4/Y2/SMMJPW6QTHHDUMS1ODW59P.uasset",
				"D:/Unreal_Engine_Project/SnakeGame/Content/__ExternalActors__/MenuMap/2/QG/7RGKEAQMELWDGR7W8OB2I2.uasset",
				"D:/Unreal_Engine_Project/SnakeGame/Content/__ExternalActors__/MenuMap/8/8G/X4P8ESCRRRKN56MBVTXZ96.uasset",
				"D:/Unreal_Engine_Project/SnakeGame/Content/__ExternalActors__/MenuMap/3/TI/LDI09WKDM1SIDZLUEQ3Y4P.uasset",
				"D:/Unreal_Engine_Project/SnakeGame/Content/__ExternalActors__/MenuMap/8/LT/P351QWW4SCWO82ZRKGCE0I.uasset",
				"D:/Unreal_Engine_Project/SnakeGame/Content/__ExternalActors__/MenuMap/9/QE/OXLUDIQA1C4SE74N1QMGGL.uasset",
				"D:/Unreal_Engine_Project/SnakeGame/Content/__ExternalActors__/MenuMap/5/M0/I1NGWY4X29FWC3SIIZPLRJ.uasset",
				"D:/Unreal_Engine_Project/SnakeGame/Content/__ExternalActors__/MenuMap/5/VV/0T5KMVODP3B9R6UOSYBWE3.uasset",
				"D:/Unreal_Engine_Project/SnakeGame/Content/__ExternalActors__/MenuMap/6/19/AHWEHN0F8CYUNWUPGX06FD.uasset",
				"D:/Unreal_Engine_Project/SnakeGame/Content/__ExternalActors__/MenuMap/4/94/W380UKC3WGRAWFU1DURW64.uasset",
				"D:/Unreal_Engine_Project/SnakeGame/Content/__ExternalActors__/MenuMap/8/53/HX73JC3MX315B3Y6P7JCQQ.uasset",
				"D:/Unreal_Engine_Project/SnakeGame/Content/__ExternalActors__/MenuMap/8/T5/CT18WU7HGLMUJTQ9P6SCD3.uasset",
				"D:/Unreal_Engine_Project/SnakeGame/Content/__ExternalActors__/MenuMap/5/3H/3YVIVUI7DFFCLSLIZ7IUN2.uasset",
				"D:/Unreal_Engine_Project/SnakeGame/Content/__ExternalActors__/MenuMap/7/XI/YFIYXYEL35PRQWF3LY6SJR.uasset",
				"D:/Unreal_Engine_Project/SnakeGame/Content/__ExternalActors__/MenuMap/F/0B/BHA1GMYU40J9H0EOEDFBIK.uasset",
				"D:/Unreal_Engine_Project/SnakeGame/Content/__ExternalActors__/MenuMap/8/K4/3VA41GW91IUWIBSGP28EAH.uasset",
				"D:/Unreal_Engine_Project/SnakeGame/Content/__ExternalActors__/MenuMap/F/0M/OEBKR07JGV5AE1YJZUTW1V.uasset",
				"D:/Unreal_Engine_Project/SnakeGame/Content/__ExternalActors__/MenuMap/4/7D/YWGMFEWIPKJ6WHLVWFNFUJ.uasset",
				"D:/Unreal_Engine_Project/SnakeGame/Content/__ExternalActors__/MenuMap/3/CL/5HEHYHYHLK80OEZG3NUAE6.uasset",
				"D:/Unreal_Engine_Project/SnakeGame/Content/__ExternalActors__/MenuMap/4/IJ/K92FNGAUQUQCQYDW0XPNBZ.uasset",
				"D:/Unreal_Engine_Project/SnakeGame/Content/__ExternalActors__/MenuMap/C/DA/QSII98V16AZCRMA8JB2LUV.uasset",
				"D:/Unreal_Engine_Project/SnakeGame/Content/__ExternalActors__/MenuMap/4/64/YRU9055YCRQYFVJPAMGMC2.uasset",
				"D:/Unreal_Engine_Project/SnakeGame/Content/__ExternalActors__/MenuMap/3/1P/S9IJ04VBMWKBI8AK7UYVWF.uasset",
				"D:/Unreal_Engine_Project/SnakeGame/Content/__ExternalActors__/MenuMap/B/IU/A11ZWP4QWUBQA5OTRCP8TR.uasset",
				"D:/Unreal_Engine_Project/SnakeGame/Content/__ExternalActors__/MenuMap/2/OB/11S4K28AK2V8PZSRDKXK5O.uasset",
				"D:/Unreal_Engine_Project/SnakeGame/Content/__ExternalActors__/MenuMap/D/XY/JEZZ70HPHRLFBZADVWPI9H.uasset",
				"D:/Unreal_Engine_Project/SnakeGame/Content/__ExternalActors__/MenuMap/E/PQ/LIKBR7MKQMAEW32WH5HTBO.uasset",
				"D:/Unreal_Engine_Project/SnakeGame/Content/__ExternalActors__/MenuMap/C/93/Q1KAIVJIUMULVE6S8NO3DW.uasset",
				"D:/Unreal_Engine_Project/SnakeGame/Content/__ExternalActors__/MenuMap/9/CQ/CY1I84CP666RSMZQXY8GVR.uasset",
				"D:/Unreal_Engine_Project/SnakeGame/Content/__ExternalActors__/MenuMap/0/3T/JX89M80N925CH9C6L2YTXE.uasset",
				"D:/Unreal_Engine_Project/SnakeGame/Content/__ExternalActors__/MenuMap/B/R4/NUQJJVWOR2JE947GSAV8EX.uasset",
				"D:/Unreal_Engine_Project/SnakeGame/Content/__ExternalActors__/MenuMap/5/1E/8WPM3I1YQWII014NF2V90U.uasset",
				"D:/Unreal_Engine_Project/SnakeGame/Content/__ExternalActors__/MenuMap/A/JM/35LF73TG47JB8PMWH25LR8.uasset",
				"D:/Unreal_Engine_Project/SnakeGame/Content/__ExternalActors__/MenuMap/1/L1/2TRKMRCG0S0VWLBZAW7XHW.uasset",
				"D:/Unreal_Engine_Project/SnakeGame/Content/__ExternalActors__/MenuMap/9/33/HO46FSOCPMK34F0KY3G99G.uasset",
				"D:/Unreal_Engine_Project/SnakeGame/Content/__ExternalActors__/MenuMap/8/E7/2HQ28Z96CZLIL3B5CYIR4D.uasset",
				"D:/Unreal_Engine_Project/SnakeGame/Content/__ExternalActors__/MenuMap/2/H2/UFWYPDQAXXIYQNT8BVPNXV.uasset",
				"D:/Unreal_Engine_Project/SnakeGame/Content/__ExternalActors__/MenuMap/3/V0/G9PFVF6F1IV575SO4ZDUXN.uasset",
				"D:/Unreal_Engine_Project/SnakeGame/Content/__ExternalActors__/MenuMap/A/EX/EX884BFT3EOZ48P1HAA5QE.uasset",
				"D:/Unreal_Engine_Project/SnakeGame/Content/__ExternalActors__/MenuMap/2/WP/OKJDTHFBT4O7XE20F6YM8V.uasset",
				"D:/Unreal_Engine_Project/SnakeGame/Content/__ExternalActors__/MenuMap/E/UD/X4LO7DF7PORLE9N7DE6SWV.uasset",
				"D:/Unreal_Engine_Project/SnakeGame/Content/__ExternalActors__/MenuMap/9/AO/3E1T5LEGP20ZUU1NOZMG64.uasset",
				"D:/Unreal_Engine_Project/SnakeGame/Content/__ExternalActors__/MenuMap/A/55/R77SDS7P1QDGKZDC58PZ24.uasset",
				"D:/Unreal_Engine_Project/SnakeGame/Content/__ExternalActors__/MenuMap/8/PJ/1EUZY2P6Q5G92Z1G86Y13Z.uasset",
				"D:/Unreal_Engine_Project/SnakeGame/Content/__ExternalActors__/MenuMap/D/ZE/1ELH3JZMG2SVGD5ZHL9FSU.uasset",
				"D:/Unreal_Engine_Project/SnakeGame/Content/__ExternalActors__/MenuMap/C/96/E5C7R41RGQSZ0MOR5PXL8Y.uasset",
				"D:/Unreal_Engine_Project/SnakeGame/Content/__ExternalActors__/MenuMap/D/WC/U6L1C9S444L6WFS3H1SMZM.uasset",
				"D:/Unreal_Engine_Project/SnakeGame/Content/__ExternalActors__/MenuMap/E/4P/YOTM00A2M3Q50FHPX7WK8B.uasset",
				"D:/Unreal_Engine_Project/SnakeGame/Content/__ExternalActors__/MenuMap/6/L5/5UGSZA302LX251RSG6AIQA.uasset",
				"D:/Unreal_Engine_Project/SnakeGame/Content/__ExternalActors__/MenuMap/5/Z6/VY2HC98SVE2F59D4ASSMF3.uasset",
				"D:/Unreal_Engine_Project/SnakeGame/Content/__ExternalActors__/MenuMap/B/QP/6U5JOCI3SS09K5U4T67Y7Y.uasset",
				"D:/Unreal_Engine_Project/SnakeGame/Content/__ExternalActors__/MenuMap/0/7H/5AN26WPNWTW8SQHLKEIFLL.uasset",
				"D:/Unreal_Engine_Project/SnakeGame/Content/__ExternalActors__/MenuMap/1/PF/MNYII63S2LVBW7UIDGJX41.uasset",
				"D:/Unreal_Engine_Project/SnakeGame/Content/__ExternalActors__/MenuMap/6/JY/4LTD7BYHGIMNRRAVLX64Z2.uasset",
				"D:/Unreal_Engine_Project/SnakeGame/Content/__ExternalActors__/MenuMap/1/Q9/MQ0F3HJ41MRSLE6ACGUHX4.uasset",
				"D:/Unreal_Engine_Project/SnakeGame/Content/__ExternalActors__/MenuMap/8/35/G5SB80528XE7H7F27UE6B1.uasset",
				"D:/Unreal_Engine_Project/SnakeGame/Content/__ExternalActors__/MenuMap/2/JW/H9R6ZHI318GO7KLBBK5SKV.uasset",
				"D:/Unreal_Engine_Project/SnakeGame/Content/__ExternalActors__/MenuMap/A/L5/6TFZ1RBEN7LLHUOTKKMIEW.uasset",
				"D:/Unreal_Engine_Project/SnakeGame/Content/__ExternalActors__/MenuMap/B/UJ/IXH70XH5NDDHERU0H1NZE6.uasset",
				"D:/Unreal_Engine_Project/SnakeGame/Content/__ExternalActors__/MenuMap/7/ZX/3ABH8XKR42WTZ8VL2DHZ2Z.uasset",
				"D:/Unreal_Engine_Project/SnakeGame/Content/__ExternalActors__/MenuMap/9/QZ/1BK29877ORPXA9IQ8E430W.uasset",
				"D:/Unreal_Engine_Project/SnakeGame/Content/__ExternalActors__/MenuMap/1/V0/N8GC796VPMVV2MWJ4TB2UA.uasset",
				"D:/Unreal_Engine_Project/SnakeGame/Content/__ExternalActors__/MenuMap/8/WH/JSRC6AKJM7WDXJDGZADPNK.uasset",
				"D:/Unreal_Engine_Project/SnakeGame/Content/__ExternalActors__/MenuMap/B/4U/7RZ5HA5IE3KFEVRTZ7HWS1.uasset",
				"D:/Unreal_Engine_Project/SnakeGame/Content/__ExternalActors__/MenuMap/4/2D/UXWY281CHCZ9SVYYSOB2GY.uasset",
				"D:/Unreal_Engine_Project/SnakeGame/Content/__ExternalActors__/MenuMap/C/56/B7H26Y63NNU2ZIKF51MTYZ.uasset",
				"D:/Unreal_Engine_Project/SnakeGame/Content/__ExternalActors__/MenuMap/0/9L/6CI2ODUTCV310CMY36W6QA.uasset",
				"D:/Unreal_Engine_Project/SnakeGame/Content/__ExternalActors__/MenuMap/E/1M/8BK4UE2YOCZF6SGZRG3Q0C.uasset",
				"D:/Unreal_Engine_Project/SnakeGame/Content/SnakeGameModeBP.uasset",
				"D:/Unreal_Engine_Project/SnakeGame/Content/Wall_BP.uasset",
				"D:/Unreal_Engine_Project/SnakeGame/Content/BonusSpeed_BP.uasset",
				"D:/Unreal_Engine_Project/SnakeGame/Content/Food_BP.uasset",
				"D:/Unreal_Engine_Project/SnakeGame/Content/BonusBlock_BP.uasset",
				"D:/Unreal_Engine_Project/SnakeGame/Content/Floor_BP.uasset",
				"D:/Unreal_Engine_Project/SnakeGame/Content/BonusLife_BP.uasset",
				"D:/Unreal_Engine_Project/SnakeGame/Content/Teleport_BP.uasset",
				"D:/Unreal_Engine_Project/SnakeGame/Content/PlayerPawnBP.uasset",
				"D:/Unreal_Engine_Project/SnakeGame/Content/SnakeBaseBP.uasset",
				"D:/Unreal_Engine_Project/SnakeGame/Content/SnakeElementBaseBP.uasset",
				"D:/Unreal_Engine_Project/SnakeGame/Content/FoodBP.uasset"
			]
		}
	]
}